<svg style="width:24px;height:24px" viewBox="0 0 24 24" xmlns="http://www.w3.org/2000/svg">
  <path fill="#000000" d="m 20.799999,4 h 2 v 8 h -2 z m -3.5,0 h 2 v 8 h -2 z M 12,4 a 4,4 0 0 1 4,4 4,4 0 0 1 -4,4 4,4 0 0 1 -4,-4 4,4 0 0 1 4,-4 m 0,2 a 2,2 0 0 0 -2,2 2,2 0 0 0 2,2 2,2 0 0 0 2,-2 2,2 0 0 0 -2,-2 m 0,7 c 2.67,0 8,1.33 8,4 v 3 H 4 v -3 c 0,-2.67 5.33,-4 8,-4 m 0,1.9 c -2.97,0 -6.1,1.46 -6.1,2.1 v 1.1 H 18.1 V 17 c 0,-0.64 -3.13,-2.1 -6.1,-2.1 z"/>
</svg>
