<svg xmlns="http://www.w3.org/2000/svg" width="128.688" height="20">
    <path fill="#2976B7" d="M0 0h65.875v20H0z"/>
    <path fill="#174168" d="M65.875 0h62.813v20H65.875z"/>
    <g fill="#fff">
        <path d="M13.938 13.188h-5.97V3.265H6.595v11.046h7.343v-1.124M16.078 3.047c-.5 0-.89.39-.89.875 0 .5.39.89.89.89s.875-.39.875-.89a.864.864 0 0 0-.875-.875m.688 11.265V5.829H15.39v8.485h1.375M22.484 5.61c-2.125 0-3.984 1.609-3.984 4.484 0 3.094 1.625 4.437 3.766 4.437 1.89 0 3.297-.953 3.718-2.922h-1.437c-.297 1.235-1.078 1.875-2.188 1.875C21.094 13.484 20 12.454 20 10c0-2.297 1.125-3.328 2.453-3.328 1.125 0 1.86.656 2.172 2.016h1.438c-.25-1.86-1.547-3.079-3.579-3.079M34.625 9.828c0-2.469-1.297-4.219-3.625-4.219-2.328 0-4.031 1.75-4.031 4.5 0 2.985 1.64 4.422 3.86 4.422 1.733 0 3.358-.906 3.687-2.953h-1.438c-.187 1.219-1.094 1.906-2.187 1.906-1.25 0-2.313-.75-2.438-3h6.14c.032-.296.032-.53.032-.656m-3.656-3.156c1.39 0 2.14 1 2.265 2.766H28.47c.156-1.813 1.156-2.766 2.5-2.766M43.578 8.094c-.125-1.5-1.156-2.485-3.016-2.485-.859 0-1.484.141-2.203.704l-.53.968V5.828h-1.376v8.485h1.375v-3.735c0-2.89 1.125-3.875 2.453-3.875 1.297 0 1.844.734 1.922 1.719.031.437.031.781.031 1.219v4.671h1.391V9.547c0-.688 0-1.031-.047-1.453M48.39 5.61c-1.734 0-2.921.921-2.921 2.484 0 1.484 1.218 2.11 2.734 2.515 1.422.391 2 .829 2 1.641 0 .813-.734 1.234-1.64 1.234-.985 0-1.766-.437-1.985-1.671h-1.437c.25 1.921 1.578 2.718 3.328 2.718 1.781 0 3.14-.797 3.14-2.39 0-1.438-.922-2.22-2.875-2.72-1.156-.312-1.859-.64-1.859-1.5 0-.734.453-1.25 1.406-1.25 1 0 1.61.579 1.797 1.579h1.438c-.172-1.547-1.22-2.64-3.125-2.64M60.234 9.828c0-2.469-1.297-4.219-3.625-4.219-2.328 0-4.03 1.75-4.03 4.5 0 2.985 1.64 4.422 3.858 4.422 1.735 0 3.36-.906 3.688-2.953h-1.438c-.187 1.219-1.093 1.906-2.187 1.906-1.25 0-2.313-.75-2.438-3h6.141c.031-.296.031-.53.031-.656m-3.656-3.156c1.39 0 2.14 1 2.266 2.766h-4.766c.156-1.813 1.156-2.766 2.5-2.766"/>
    </g>
    <g fill="#fff">
        <path d="M77.422 8.422v2.25h2.14c-.406 1.203-1.14 1.75-2.25 1.75-1.359 0-2.562-.938-2.562-3.719 0-2.39 1.172-3.547 2.578-3.547 1.156 0 1.89.563 2.125 1.75l.031.157h2.875l-.015-.157c-.219-2.172-1.844-3.86-4.985-3.86-3.03 0-5.625 1.985-5.625 5.829 0 3.703 2.063 5.656 5.016 5.656 1.172 0 1.922-.172 2.547-.703l.469-1.219.28 1.704h2.235V8.421h-4.86M90.188 3.36c-.594-.079-1.047-.094-1.735-.094h-4.156v11.046h2.875v-3.874h1.281c.688 0 1.14-.016 1.734-.079 1.594-.187 3.047-1.328 3.047-3.5 0-2.171-1.453-3.312-3.046-3.5m-1.126 4.829c-.203.015-.468.015-.765.015h-1.125V5.516h1.125c.297 0 .562 0 .766.015.734.063 1.171.5 1.171 1.328 0 .829-.437 1.266-1.171 1.329M103.063 11.875h-5.594v-8.61h-2.875v11.047h8.469v-2.437M113.219 5.766h-3.156l-1.75 6.265-1.75-6.265h-3.204l3.375 8.546h3.11l3.375-8.546M120.453 8.5c1.438-.344 2.094-1.219 2.094-2.5 0-1.578-1.25-2.953-3.953-2.953-2.86 0-4.235 1.672-4.422 3.515l-.016.172h2.875l.016-.171c.062-.72.422-1.407 1.266-1.407.796 0 1.234.453 1.234 1.172 0 .75-.531 1.328-1.594 1.406l-.422.032v1.859l.422.016c1.156.046 1.844.53 1.844 1.468 0 .75-.625 1.313-1.61 1.313-.953 0-1.5-.688-1.656-1.453l-.031-.156h-2.875l.016.156c.218 2.203 1.859 3.562 4.656 3.562 2.781 0 4.516-1.39 4.516-3.5 0-1.422-.797-2.219-2.36-2.531"/>
    </g>
</svg>
