<svg style="width:24px;height:24px" viewBox="0 0 24 24" xmlns="http://www.w3.org/2000/svg">
  <path fill="#000000" d="M21.03 6.29 12 .64 2.97 6.29C2.39 6.64 2 7.27 2 8v10c0 1.1.9 2 2 2h16c1.1 0 2-.9 2-2V8c0-.73-.39-1.36-.97-1.71M20 18H4v-8l8 5 8-5v8m-8-5L4 8l8-5 8 5-8 5z"/>
</svg>
