<svg style="width:24px;height:24px" viewBox="0 0 24 24" xmlns="http://www.w3.org/2000/svg">
  <path fill="#000000" d="M15 4v7H5.17L4 12.17V4h11m1-2H3a1 1 0 0 0-1 1v14l4-4h10a1 1 0 0 0 1-1V3a1 1 0 0 0-1-1m5 4h-2v9H6v2a1 1 0 0 0 1 1h11l4 4V7a1 1 0 0 0-1-1z"/>
</svg>
