{
    "01-01": {
        "004": "Tabell",
        "003": "Diagram",
        "001": "Hovedvindu",
        "005": "Statistikk",
        "002": "Her har du en oversikt over innsamlet blodtrykksdata. Brukergrensesnittet ble designet for å være så enkelt som mulig, slik at selv eldre brukere raskt kan orientere seg.<p>Alle viktige funksjoner er lette å bruke via verktøylinjen. Funksjoner som trengs sjeldnere er å finne i menyfeltet.<p>Hovedvinduet er inndelt i tre visninger:",
        "006": "Hvis data for en annen bruker også håndteres, kan analysen byttes via symbolet for brukere (<font color='red'>A/B</font>) i verktøylinjen. LCD-panelet (<font color='red'>C</font>) viser antall dataoppføringer for nåværende valgt bruker.<p>Foretrukket tidskode settes via symbolet (<font color='red'>D</font>) som vises ved siden av det. For eksempel «ukentlig» (Mandag - Søndag) eller «De siste 7 dagene» (f.eks. Onsdag - Torsdag kan vises.<p>Valg av dato og tid (<font color='red'>E</font>) kan brukes til å hoppe til ønsket dag eller time. <p>Ellers vil ønsket periode settes ved bruk av knappene på bunnen ved bruk av musehjulet eller tilbake/forover-knappene (<font color='red'>F/G</font>) på toppen. Ved å holde Shift-tasten kan du hoppe direkte til første/siste oppføring."
    },
    "01": {
        "001": "Brukergrensesnitt",
        "003": "Hovedvindu",
        "004": "Innstillinger",
        "007": "Dataanalyse",
        "008": "Nettbasert oppdatering",
        "005": "Importer fra enhet",
        "006": "Importer fra inngang",
        "002": "Programmet består av hovedvinduet og forskjellige dialoger som gir deg forskjellige funksjoner.<p>Velg element du vil lære mer om:<br>"
    },
    "00": {
        "006": "Beskrivelse",
        "007": "Grensesnitt",
        "005": "Modell",
        "001": "Velkommen",
        "002": "Velkommen til UBPM, den universelle blodtrykksmåleren for Linux, macOS, og Windows.",
        "004": "Produsent",
        "008": "Flere blodtrykksmonitorer kan legges til via <a href='03.html'>programtilleggsgrensesnittet</a>.<p>Kan du programmering og har en blodtrykksmonitor du kjenner overføringsprotokollen til og kan programmere lar dettes seg gjøre .<p>Selv om du ikke kan programmere selv og synes programmet er nyttig kan du støtte videre utvikling med en liten donasjon. Dette kan brukes til å for eksempel kjøpe og integrere flere blodtrykksmonitorer. Selv foreldede og tidligere ustøttede produkter som kan være defekte kan være nyttige. Takk skal du ha.<p>Videre beskrives programmet og dets funksjoner:<p>Interaktive <font color='blue'><u>referanser</u></font> er blåe, <font color='green'>hint</font> er grønne, <font color='red'>advarsler</font> er røde, og <font color='brown'>oppsett</font> er brune …",
        "003": "Med dette programmet kan du håndtere info om ditt blodtrykk fra din egen datamaskin, uten å sende inn privat info om din helse til bedrifter eller avsløre den på Internett.<p>Oppføringer kan <a href='01-04.html'>skrives</a>, eller <a href='02-01.html'>leses inn</a> manuelt fra en fil eller <a href='01-03.html'>leses ut</a> direkte fra en blodtrykksmonitor.<p>Følgende blodtrykksmonitorer støttes foreløpig:"
    },
    "01-01-01": {
        "001": "Diagramsvisning",
        "004": "Ved å klikke på et målingspunkt kan det slettes, skjules, eller redigeres.",
        "005": "Høyreklikking åpner bindeleddsmenyen, som forklares i nærmere detalj i <a href='01-02-04.html'>Innstillinger</a>.",
        "002": "I denne visningen vises data for valgt bruker og periode som et diagram:",
        "003": "De forvalgte verdiene inndeles i røde (hjertefrekvens), grønne (diastolisk blodtrykk) og blå (systolisk blodtrykk) områder.<p>Når du holder pekeren over et målepunkt vises tidspunktet for målingen, data for systolisk- og diastolisk blodtrykk, samt pulstrykk, hjertefrekvens, og valgfri kommentar."
    },
    "01-01-02": {
        "001": "Tabellvisning",
        "002": "I denne visningen kan man se data for valgt bruker og periode som en tabell:",
        "003": "Ved å klikke på respektive kolonnehoder, kan sorteringsrekkefølgen justeres henholdsvis, f.eks. stigende etter hjertefrekvens.<p>Å dobbeltklikke på et felt i en rad tillater redigering av verdien.<p>Ved å høyreklikke på en rad, kan dataoppføringen slettes, og også vises igjen via bindeleddsmenyene. Skjulte datasett ignoreres i diagram- og statistikkvisningen."
    },
    "01-02-01": {
        "002": "Alle database-relevante innstillinger gjøres her:",
        "001": "Database",
        "003": "Databasen inneholder alle oppføringer for begge brukere.<p>Hvis forvalgt sti skal endres, kan valgt sti velges her.<p>Databasen kan alternativt også krypteres. For å gjøre dette kan du aktivere alternativet og skrive inn et passord. Sjekk passordets sikkerhet via knappen ved siden av oppføringen.<p class='warn'><b>Advarsel</b>: Aldri glem dette passordet, fordi uten det er ikke tilgang til databasen mulig.<p class='info'><b>Merk</b>: En kryptert database bør velges f.eks. for opplasting i en offentlig sky.<p>Databasen sikkerhetskopieres automatisk hvis samsvarende alternativ er aktivert. Dette kan gjøres daglig, ukentlig, eller månedlig, og oppsett antall kopier beholdes. Eldre kopier fjernes henholdsvis."
    },
    "01-02-02": {
        "002": "Alle bruker-relevante innstillinger gjøres her:",
        "001": "Bruker",
        "003": "For å klassifisere de målte verdiene, kan du skrive inn kjønn og aldersgruppe her. Hvis du ønsker at navnet ditt skal vises på utskriften kan du skrive inn det også.<p>For bedre klassifisering av målte verdier av doktor, kan du også skrive inn videre info. For å gjøre dette kan du aktivere alternativet og legge til fødselsdag, høyde og vekt.<p>Hvis en annen bruker også administreres, kan du bytte til bruker 2 og skrive inn info for vedkommende."
    },
    "01-02-03": {
        "001": "Enhet",
        "002": "Alle enhets-relevante innstillinger gjøres her:",
        "003": "Hvis du har en støttet blodtrykksmonitor kan du aktivere den her for å lese ut de målte verdiene direkte. Noe info, for valgt blodtrykksmonitor vises, som kan brukes for å vise fabrikantens nettside, eller kontakte vedlikeholderen av programtillegget per e-post.<p>Hvis du ikke er sikker på om din blodtrykksmonitor er den riktige, kan du vise et bilde av den og sammenligne den med din.<p>Videre gir dette deg umiddelbar tilgang til blodtrykksmonitorens manual."
    },
    "01-02-04": {
        "001": "Diagram",
        "002": "Alle diagram-relevante innstillinger gjøres her:",
        "004": "Terskelverdiene for blodtrykk og puls kan justeres her per bruker.",
        "003": "Angi hvorvidt X-aksen skal tilpasse seg dynamisk til de målte verdiene eller alltid slutte statisk ved 200. Denne dynamikken har den fordelen at mindre områder kan skilnes enklere. <p>Videre kan fargede områder vises eller skjules for retningen av de målte verdiene. Terskelverdiene for dette kan angis i følgende kategorier. <p>Om de målte verdiene skal vises som interaktive symboler (for sletting eller infovisning). Farge og størrelse kan også defineres her. <p>Om de målte verdiene henger sammen med linjer og hvilken bredde kan også settes opp. <p class='info'><b>Merk</b>: Disse innstillingene kan også endres direkte i hovedvinduet ved å høyreklikke.",
        "005": "For hjertefrekvens kan du angi hvorvidt det skal finnes i visningen og om det skal skrives ut på eget ark."
    },
    "01-02-05": {
        "001": "Tabell",
        "002": "Alle tabell-relevante innstillinger gjøres her:",
        "003": "Hvis målingene dine overstiger en gitt terskel, vil de markeres i rødt i visningen og utskriften.<p>Her kan du justere disse terskelene nedover eller oppover hvis nødvendig. Hvis de forhåndsinnstilte verdiene skal normalt ikke endres."
    },
    "01-02-06": {
        "001": "Statistikk",
        "002": "Alle statistikk-relevante innstillinger gjøres her:",
        "003": "Hvis medianverdien skal vises istedenfor gjennomsnittsverdien, kan man gjøre denne endringen her. <p>Videre kan det bestemmes om forklaringen nederst skal vise verdiene eller beskrivelsene. <p class='info'><b>Merk</b>: Disse innstillingene kan også endres ved å høyreklikke direkte i hovedvinduet.</p> <h4>Gjennomsnittlig verdi</h4> Gjennomsnittsverdien beregnes ved å legge sammen alle målte verdier og deretter dele summen på antall målte verdier. Tallet kan dermed la seg forskyve av utliggere. Eksempel: 5 målte verdier med 130, 120, 190, 120, <p>120 Resultat som<p>en sum på 680 delt på antallet 5 gir resultatet 136, det vil si en verdi som aldri ble målt og dratt avgårde av tallet 190.<h4> Medianverdi</h4>Medianverdien er den målte verdien som står i midten når alle verdier er sortert etter størrelse. Fordelen er robustheten mot utliggere.<p>Eksempel: 5 målte verdier med 130, 120, 190, 120, 120<p>Sortert i stigende rekkefølge (120, 120, 120, 130, 190) gir verdien i midten resultatet 120, altså en verdi som virkelig ble målt og også forekom oftest."
    },
    "01-02-07": {
        "001": "E-post",
        "002": "Alle e-post-relevante innstillinger gjøres her:",
        "003": "Annet enn utskrift kan du også sende dataene dine som e-post direkte til legekontoret.<p>For å gjøre dette skriver du inn e-postadressen til mottageren og endrer emne og meldingstekst som du vil.<p>Variabelen $USER erstattes senere av det oppsatte brukernavnet.<p class='info'><b>Merk</b>: Denne variabelen kan også slettes hvis den ikke er nødvendig.<p>På grunnlag av variablene $CHART, $TABLE og $STATS vil tilsvarende PDF-fil legges til som vedlegg senere. For eksempel, hvis ingen tabell skal sendes, fjerner du variabelen $TABLE fra meldingen.<p class='warn'><b>Vær forsiktig</b>: Minst én av de 3 variablene må være til stede.<p>Denne e-postklienten til systemet brukes til forsendelse. Sørg for at den er tilknyttet *.EML-filene. Videre må e-postklienten støtte «X-Unsent»-flagget slik at den genererte EML-filen kan sendes."
    },
    "01-03": {
        "001": "Import fra enhet",
        "005": "Koble fra- og koble til igjen blodtrykksmonitoren",
        "004": "opprett filen <b>\"/etc/udev/rules.d/60-ubpm.rules\"</b> som rot-bruker (erstatt «idVendor» og «idProduct» med egne verdier.)",
        "002": "Blodtrykksverdier kan leses ut direkte fra blodtrykksmonitoren, forutsatt at den har et samsvarende grensesnitt, og at et programtillegg er tilgjengelig:"
    },
    "01-04": {
        "001": "Import fra inngang",
        "002": "Hvis du vil skrive inn én eller flere verdier manuelt kan du gjøre dette her:"
    },
    "01-05": {
        "001": "Dataanalyse",
        "004": "Parameter",
        "009": "Hjertefrekvens",
        "011": "Usynlig",
        "012": "Kommentar",
        "013": "Dato",
        "014": "Tid",
        "016": "Bevegelse",
        "006": "Systolisk blodtrykk",
        "007": "Diastolisk blodtrykk",
        "008": "Pulstrykk",
        "010": "Uregelmessig hjertefrekvens",
        "005": "Betydning",
        "003": "Velg én av de forhåndsdefinerte SQL-spørringene eller skriv inn din egen spørring og bekreft den med RETURN-tasten.<p>Resultatet ev din spørring vises nå eller så ser du en feilmelding. I fall det er en feilmelding kan du endre parameterne til passende dataoppføringer blir funnet.<p>Følgende spørringer kan vurderes:<br>",
        "015": "Ved å klikke på respektivt kolonnenavn kan sorteringsrekkefølgen justeres henholdsvis, f.eks. stigende etter hjertefrekvens.",
        "002": "For å kunne vurdere spesifikke dataoppføringer kan en SQL-spørring startes:"
    },
    "02-01": {
        "001": "Importer data"
    },
    "02-01-01": {
        "001": "Importer fra CSV",
        "002": "En CSV-fil må ha følgende struktur:"
    },
    "02-02-04": {
        "001": "Eksporter til SQL",
        "002": "En SQL-fil er nyttig i følgende bruksfall, for eksempel:",
        "003": "direkte sikkerhetskopi/gjenoppretting for UBPM",
        "004": "ekstern behandling i databaseprogrammer"
    },
    "02-02-05": {
        "001": "Eksporter til PDF",
        "003": "Arkivering av spesifikke visninger",
        "002": "En PDF-fil er nyttig i følgende brukstilfeller, for eksempel:"
    },
    "02-04": {
        "001": "Flytting av data",
        "021": "Time, 00…23",
        "026": "Millisekund, 0…999",
        "009": "Dag, 01…31",
        "012": "Måned, 1…12",
        "002": "Eksisterende målinger kan flyttes fra produsentens programvare:",
        "017": "År xxxx",
        "016": "År 00…99",
        "008": "Dag, 1…31",
        "013": "Måned, 01…12",
        "005": "Parameter",
        "006": "Betydning",
        "007": "Kommentar",
        "010": "Dag (kort), f.eks Man",
        "011": "Dag (lang), f.eks. Mandag",
        "014": "Måned (kort), f.eks. Jan",
        "015": "Måned (lang), f.eks. Januar",
        "018": "Time, 0…23 / 1…12",
        "019": "Time, 00…23 / 01…12",
        "020": "Time, 0…23",
        "022": "Minutt, 0…59",
        "023": "Minutt, 00…59",
        "024": "Sekund, 0…59",
        "025": "Sekund, 00…59",
        "027": "Millisekund, 000…999",
        "030": "Tidssone, f.eks. CEST",
        "028": "AM/PM nedre",
        "029": "AM/PM øvre",
        "031": "aktiverer språkfeltet. Antagelig kreves ISO 639-1-inndata, ala «de»"
    },
    "02-03-01": {
        "001": "Forhåndsvis",
        "002": "For å forsikre at utdataen faktisk samsvarer med ønsket skjema kan du generere en fohåndvisning av repsektiv visning før utskrift utføres.",
        "003": "Hvis visningen samsvarer med ønsket resultat, kan forsendelse til skriver startes ved å trykke på utskriftssymbolet øverst til høyre."
    },
    "02-03-02": {
        "001": "Skriv ut",
        "002": "Velg ønsket skriver fra utskriftsdialogen og endre innstillingene eller egenskapene som ønsket.<p>Etter forberedelsestiden vil utskriften på skriveren starte, og utskriftene kan hentes en stund etterpå."
    },
    "03": {
        "001": "Enhetsprogramtillegg",
        "007": "finn de målte verdiene i svarene",
        "006": "oppdag de sendte kommandoene og svarene",
        "009": "programmer et programtillegg basert på funnene ovenfor",
        "003": "Installer produsentprogramvaren og protokollanalyseverktøyet Wireshark (https://wireshark.org)",
        "008": "erstatt kommunikasjonen ved bruk av eksterne verktøy som f.eks. hidapitester (https://github.com/todbot/hidapitester) for USB-HID-enheter, eller bettercap (https://www.bettercap.org) for Blåtannsenheter",
        "005": "gjennomgå innsamlet datatrafikk mellom datamaskinen og blodtrykksmonitoren i Wireshark"
    },
    "01-02": {
        "001": "Innstillinger",
        "004": "De respektive forvalgsverdiene indikeres i (), og fritekstverdier med %s.",
        "002": "Alle innstillinger kan håndteres og settes opp sentralt her. Hold pekeren over et alternativ for å vise en kort beskrivelse.<p>Innstillingene er inndelt i følgende områder:",
        "003": "Etter at alt er justert som du vil, kan du lagre oppsettet ved å trykke på «Lagre»-knappen og avslutte dialogen. Forvalgte verdier for nåværende verdi kan gjenopprettes via «Tilbakestill». Hvis endringer har blitt gjort og dialogen avsluttes uten lagring vil du bli spurt igjen om du vil forkaste dem.<p><h4>Oppsett av filstruktur</h4>Alle innstillinger lagres i oppsettsfilen «ubpm.ini», i brukerens hjemmemappe under «.config/LazyT». Filen er i tekstformat, og har følgende struktur:"
    },
    "01-02-08": {
        "001": "Programtillegg",
        "002": "Alle programtillegg-relevante innstillinger gjøres her:"
    },
    "02-01-02": {
        "001": "Importer fra XML",
        "002": "En XML-fil må ha følgende struktur:",
        "003": "Dataoppføringer for bruker 1 finnes i «U1»-området, og for bruker 2 i «U2».<p>Hver dataoppføring er å finne i området som heter «oppføring». Dette inneholder dato og tid i formen DD.MM.YYYY, og HH.MM.SS.<p>Så kommer verdiene for systolisk- (SYS) og diastolisk (DIA) blodtrykk, og hjertefrekvens (BPM).<p>Til slutt kommer irregulær- (IHB) og skjult hjerterytme (INV), og en alterantiv kommentar (msg)."
    },
    "02-01-04": {
        "001": "Importer fra SQL",
        "002": "En SQL-fil må ha følgende struktur:",
        "003": "Dataoppføringer for bruker 1 er i tabell «U1», og «U2» for bruker 2.<p>Dette inneholder dato og tid i DD.MM.ÅÅÅÅ-format, og TT.MM.SS, målte verdier for systolisk og diastolisk blodtrykk, og også hjertefrekvens, signalement uregelmessig og skjult hjertefrekvens, og en alternativ kommentar."
    },
    "02-02-01": {
        "001": "Eksporter til CSV",
        "002": "En CSV-fil passer i følgende bruksfall, f.eks:",
        "004": "manuell behandling i et regneark",
        "003": "videre automatisert behandling via skript eller programmer"
    },
    "02-01-03": {
        "001": "Importer fra JSON",
        "002": "En JSON-fil må ha følgende struktur:"
    },
    "02-02-02": {
        "001": "Eksporter til XML",
        "004": "interaktiv visning i en nettleser",
        "002": "En XML-fil er nyttig i disse brukstilfellene, for eksempel:",
        "003": "videre automatisert ved behandling av skript eller programmer"
    },
    "02-02-03": {
        "001": "Eksporter til JSON",
        "004": "foretrukket for JavaScript",
        "003": "videre automatisert av skript eller programmer",
        "002": "EN JSON-fil er nyttig i følgende brukstilfeller, for eksempel:"
    },
    "01-02-09": {
        "002": "Alle oppdaterings-relevante innstillinger gjøres her:",
        "003": "Hver gang programmet startes kan det automatisk sjekke om en ny versjon er tilgjengelig.<p>Hvis du vil at info skal vises hvis resultatet er positivt, skrur du av valget nedenfor. Dog vil dette også undertrykke advarsler og feilmedlinger!<p class='info'><b>Merk</b>: Testen kan også kalles manuelt når som helst via menyfeltet og vil deretter vise info, advarsler, og feilmeldinger.",
        "001": "Oppdater"
    },
    "01-01-03": {
        "001": "Statistikkvisning",
        "002": "I denne visningen vises data for valgt bruker og periode som statistikk:",
        "003": "Å klikke på siste felt i verdiområdet veksler mellom gjennomsnitt og median.<p>Å klikke på et sirkelsegment framhever det og veksler etikettmerkingen.<p>Ved å klikke på infoen nedenfor dette kan visningen byttes helt.<p>Et høyreklikk åpner bindeleddsmenyen, som forklares nærmere i <a href='01-02-06.html'>Innstillinger</a>."
    },
    "01-06": {
        "001": "Nettbasert oppgradering",
        "002": "Hvis en ny versjon blir funnet under oppgraderingssjekk, vil følgende notis vises:"
    },
    "02-03": {
        "001": "Skriv ut data"
    },
    "02": {
        "001": "Datahåndtering",
        "002": "Oppføringer kan <a href='02-01.html'>importeres</a>, <a href='02-02.html'>eksporteres</a>, <a href='02-04.html'>flyttes</a> og <a href='02-03.html'>skrives ut</a>."
    },
    "02-02": {
        "001": "Eksporter data"
    }
}
