{
    "00": {
        "001": "Welkom",
        "002": "Welkom bij UBPM, de universele bloeddruk manager voor Windows, Linux en MacOS!",
        "003": "Met deze applicatie kunt u uw bloeddrukgegevens beheren vanaf uw thuiscomputer zonder je privé-informatie over uw gezondheid naar bedrijven te verzenden die deze informatie op internet zouden kunne onthullen of verkopen aan derden. <p> Records kunnen handmatig worden gemaakt <a href = '01 -04.html '> ingevoerd </a>, <a href='02-01.html'> ingelezen </a> vanuit een bestand of direct <a href='01-03.html'> uitgelezen </a> van de bloeddrukmeter. <p> De volgende bloeddrukmeters worden momenteel ondersteund:",
        "004": "Fabrikant",
        "005": "Model",
        "006": "Beschrijving",
        "007": "Interface",
        "008": "Verdere bloeddrukmeters kunnen worden toegevoegd via de <a href='03.html'> plug-in-interface </a>. <p> Als u een bloeddrukmeter heeft die nog niet wordt ondersteund, en je het transmissieprotocol kent, dan kan je deze programmeren, Ik help je graag verder bij de ontwikkeling. Als u al een plug-in geprogrammeerd hebt en deze beschikbaar wilt stellen aan andere gebruikers, neem dan contact met mij op. <p> Zelfs als u niet zelf kunt programmeren, maar de applicatie nuttig vindt, bent u van harte welkom om de verdere ontwikkeling te ondersteunen met een kleine donatie. Dit kan bijvoorbeeld worden gebruikt om andere bloeddrukmeters aan te schaffen en te integreren. Ook afgedankte en niet eerder ondersteunde bloeddrukmeters, die mogelijk defect zijn maar nog steeds door de computer worden herkend, zijn welkom. Heel erg bedankt! <p> Kom nu meer te weten over de applicatie en zijn functies op de volgende pagina's. <p> Interactief <font color = 'blue'> <u> references</u> </font> zal blauw zijn , <font color = 'green'> hints </font> green, <font color = 'red'> waarschuwingen </font> rood en <font color = 'brown'> configuraties </font> bruin…"
    },
    "01": {
        "001": "Gebruiker Interface",
        "002": "De applicatie bestaat uit het hoofdvenster en verschillende dialoogvensters die bepaalde functies bieden. <p> Selecteer het item waarover u meer wilt weten: <br>",
        "003": "Hoofdvenster",
        "004": "Instellingen",
        "005": "Importeren van Apparaat",
        "006": "Importeren van Inputgegevens",
        "007": "Data Analyse",
        "008": "Online Update",
        "009": "Dataverdeling"
    },
    "01-01": {
        "001": "Hoofdvenster",
        "002": "Hier heb je een overzicht van je verzamelde bloeddrukgegevens. De gebruikersinterface is zo eenvoudig mogelijk ontworpen, zodat zelfs oudere gebruikers snel hun weg kunnen vinden. <p> Alle belangrijke functies zijn gemakkelijk toegankelijk via de werkbalk. Functies die minder vaak nodig zijn, zijn bereikbaar via de menubalk. <p> Het hoofdvenster is opgedeeld in 3 weergaven:",
        "003": "Grafiek",
        "004": "Tabel",
        "005": "Statistiek",
        "006": "Als de gegevens van een partner ook worden beheerd, kan de evaluatie worden omgeschakeld met behulp van de symbolen voor gebruikers (<font color = 'red'> A / B </font>) in de werkbalk. Het LCD-scherm (<font color = 'red'> C </font>) toont het aantal gegevensrecords voor de momenteel geselecteerde gebruiker. <p> De gewenste tijdmodus wordt ingesteld met behulp van het symbool (<font color = 'red' > D </font>) dat ernaast staat. Zo kan 'Wekelijks' (maandag - zondag) of 'Afgelopen 7 dagen' (bijv. Woensdag - dinsdag) worden weergegeven. <p> Via de datum- en tijdskeuze (<font color = 'red'> E </font> ) kunt u direct naar de gewenste dag of het gewenste uur springen. <p> In het andere geval kan de gewenste periode worden gespecificeerd met de knoppen onderaan en vervolgens met het muiswiel of de achteruit / vooruit-knoppen (<font color = 'red '> F / G </font>) bovenaan. Met behulp van de SHIFT toets, kan je onmiddellijk naar de eerste of de laatste record springen."
    },
    "01-01-01": {
        "001": "Grafiek Weergave",
        "002": "In deze weergave worden de gegevens voor de geselecteerde gebruiker en periode weergegeven als een grafiek:",
        "003": "De normale waarden worden afgebakend door rode (hartslag), groene (diastolische bloeddruk) en blauwe (systolische bloeddruk) gebieden. <p> Door de muis op een meetpunt te laten rusten, wordt het tijdstip van de meting, de gegevens voor de systolische en diastolische bloeddruk en de hartslag en een optionele opmerking worden weergegeven.",
        "004": "Door op een meetpunt te klikken, kan deze worden verwijderd, verborgen of bewerkt.",
        "005": "Een rechterklik opent het contextmenu, waarvan de betekenis in meer detail wordt uitgelegd onder <a href='01-02-04.html'> Instellingen </a>."
    },
    "01-01-02": {
        "001": "Tabel Weergave",
        "002": "In deze weergave worden de gegevens voor de geselecteerde gebruiker en periode in een tabel weergegeven:",
        "003": "Door op de respectievelijke kolomkop te klikken, kan de sorteervolgorde dienovereenkomstig worden aangepast, bijv. Oplopend op hartslag. <p> Door op een veld in een regel te dubbelklikken, kan deze waarde worden gewijzigd. <p> Door met de rechtermuisknop op een regel te klikken, kan de datarecord worden verwijderd en uitgeschakeld of weer ingeschakeld via het contextmenu. Verborgen records worden genegeerd in de diagram- en statistiekenweergave."
    },
    "01-01-03": {
        "001": "Statistiek Weergave",
        "002": "In deze weergave worden de gegevens voor de geselecteerde gebruiker en periode als statistieken weergegeven:",
        "003": "U kunt omschakelen tussen gemiddelde en mediaan door op de laatste balk in het waardegebied te klikken. <p> Door op een willekeurig segment van de cirkel te klikken, wordt dit gemarkeerd en wordt van label gewisseld. <p> Door op de onderstaande legende te klikken, kan de display volledig omgewisseld worden. <p> Door met de rechtermuisknop te klikken wordt het contextmenu geopend, waarvan de betekenis in meer detail wordt uitgelegd onder <a href='01-02-06.html'> Instellingen </a>."
    },
    "01-02": {
        "001": "Instellingen",
        "002": "Alle instellingen kunnen hier centraal worden beheerd en geconfigureerd. Beweeg de muisaanwijzer over een optie om een korte beschrijving te zien. <p> De instellingen zijn onderverdeeld in de volgende gebieden:",
        "003": "Nadat alles naar wens is aangepast, kunt u de configuratie opslaan met de knop \"Opslaan\" en het dialoogvenster verlaten. De standaardwaarden van de huidige weergave kunnen worden hersteld met \"Reset\". Als er wijzigingen zijn aangebracht en het dialoogvenster wordt verlaten zonder op te slaan, wordt u opnieuw gevraagd of u ze echt wilt verwijderen. <p> <h4> Structuur van het configuratiebestand </h4> Alle instellingen worden gemaakt in het configuratiebestand \" ubpm.ini \"in de homedirectory van de gebruiker onder\" .config / LazyT \". Het bestand is in tekstformaat en heeft de volgende structuur:",
        "004": "De respectievelijke standaardwaarden worden gegeven in (), vrije tekstwaarden aangegeven met %."
    },
    "01-02-01": {
        "001": "Database",
        "002": "Alle database-relevante instellingen worden hier gemaakt:",
        "003": "De database bevat alle gegevensrecords voor beide gebruikers. <p> Indien het standaardpad gewijzigd moet worden, selecteer dan hier het gewenste pad. <p> De database kan optioneel ook worden versleuteld. Activeer hiervoor de optie en voer een wachtwoord in. Controleer het wachtwoord met de knop naast het item voor de veiligheid! <P class = 'warn'> <b> Let op </b>: vergeet dit wachtwoord nooit, want zonder dit heb je geen toegang meer tot de database! <p class='info'><b>Nota</b:> Een versleutelde database moet worden geselecteerd, bijvoorbeeld als er een back-up van moet worden gemaakt in een openbare cloud.<p>Er wordt automatisch een back-up gemaakt van de database als de bijbehorende optie is geactiveerd. Dit kan dagelijks, wekelijks of maandelijks en het ingestelde aantal exemplaren blijft behouden. Oudere exemplaren worden dienovereenkomstig verwijderd."
    },
    "01-02-02": {
        "001": "Gebruiker",
        "002": "Alle gebruikersrelevante instellingen worden hier gemaakt:",
        "003": "Voer hier het geslacht en de leeftijdsgroep in om de gemeten waarden te classificeren. Als u wilt dat uw echte naam op de afdruk verschijnt, voer deze dan ook in. <p> U kunt ook aanvullende informatie verstrekken zodat de arts de gemeten waarden beter kan classificeren. Activeer hiervoor de optie en voeg verjaardag, lengte en gewicht toe. <p> Als uw partner ook beheerd moet worden, schakelt u nu over naar gebruiker 2 en voert u ook de gegevens voor hem/haar in."
    },
    "01-02-03": {
        "001": "Apparaat",
        "002": "Alle apparaatrelevante instellingen worden hier gemaakt:",
        "003": "Als u een ondersteund meetapparaat heeft, kunt u dit hier activeren om de meetwaarden direct uit te lezen. Er wordt dan wat informatie over het geselecteerde meetapparaat weergegeven, waarmee u de website van de fabrikant kunt oproepen of per e-mail contact op kunt nemen met de extensiemanager. <p> Als u niet zeker weet of het meetapparaat het juiste is, kunt u de foto opvragen en vergelijken deze met die van je apparaat. <p> Daarboven heb je ook directe toegang tot de handleiding van het meetinstrument."
    },
    "01-02-04": {
        "001": "Grafiek",
        "002": "Alle voor het diagram relevante instellingen worden hier gemaakt:",
        "003": "Geef aan of de X-as dynamisch moet worden aangepast aan de gemeten waarden of steeds statisch moet eindigen op 200. De dynamiek heeft als voordeel dat kleinere gebieden gemakkelijker te onderscheiden zijn. <p> Verder kunnen gekleurde gebieden worden getoond of verborgen ter oriëntatie van de gemeten waarden. De drempelwaarden hiervoor kunnen in de volgende tabbladen worden gespecificeerd. <p> Ook kunt u aangeven of de meetwaarden als interactieve symbolen moeten verschijnen (voor wissen ofwel voor informatieweergave). <p> Voor de afdruk kunt u instellen of de hartslag ook moet worden weergegeven. <p class = 'info'> <b> Opmerking </b>: Deze instellingen kunnen ook rechtstreeks in het hoofdvenster worden gewijzigd door met de rechtermuisknop te klikken.",
        "004": "De drempelwaarden voor bloeddruk en hartslag kunnen hier voor elke gebruiker worden aangepast.",
        "005": "Voor de hartslag kan aangegeven worden of deze in de weergave moet verschijnen en op een apart blad moet worden afgedrukt."
    },
    "01-02-05": {
        "001": "Tabel",
        "002": "Alle tabelrelevante instellingen worden hier gemaakt:",
        "003": "Als uw meetwaarden een bepaalde drempelwaarde overschrijden, worden deze in de weergave en op de afdruk rood gemarkeerd. <p> Hier kunt u deze drempelwaarden indien nodig naar boven of naar beneden aanpassen. De vooraf ingestelde drempelwaarden mogen normaal gesproken niet worden gewijzigd."
    },
    "01-02-06": {
        "001": "Statistiek",
        "002": "Alle voor statistieken relevante instellingen worden hier gemaakt:",
        "003": "Als de mediaanwaarde moet worden weergegeven in plaats van de gemiddelde waarde, kan dit hier worden omgeschakeld. <p> U kunt ook aangeven of de legende onderaan de waarden ofwel de beschrijvingen moet weergeven worden. <P class = 'info' > <b> Opmerking </ b>: deze instellingen kunnen ook rechtstreeks in het hoofdvenster worden gewijzigd door met de rechtermuisknop te klikken. </p> <h4> Gemiddelde waarde </h4> De gemiddelde waarde wordt berekend door alle meetwaarden op te tellen en vervolgens de som te delen door het aantal gemeten waarden. Dit maakt dit vatbaar voor uitschieters. <p> Voorbeeld: 5 meetwaarden met 130, 120, 190, 120, 120 <p> In totaal 680 gedeeld door het getal 5. Het resultaat 136. Dus een waarde die is eigenlijk nooit gemeten werd en door 190 was vervalst. <h4> Mediane waarde </h4> De mediaanwaarde is de gemeten waarde die in het midden staat als de gemeten waarden op grootte worden gesorteerd. Het voordeel is de robuustheid tegen uitschieters. <p> Voorbeeld: 5 meetwaarden met 130, 120, 190, 120, 120 <p> gesorteerd in oplopende volgorde 120, 120, 120, 130, 190 resulteren in het resultaat 120 ten gevolge van de waarde in het midden, met andere woorden, een waarde die daadwerkelijk gemeten werd en ook het meest voorkwam."
    },
    "01-02-07": {
        "001": "E-mail",
        "002": "Alle instellingen die relevant zijn voor E-mail, worden hier gemaakt:",
        "003": "Naast het uitprinten kunt u uw gegevens ook direct per e-mail naar de huisartsenpraktijk sturen. <p> Vul het e-mailadres van de ontvanger in en wijzig het onderwerp en het bericht naar wens. <p> De variabele $ USER wordt later vervangen door de ingestelde gebruikersnaam. <P class = 'info'> <b> Opmerking </b>: Deze variabele kan indien nodig ook worden verwijderd. <p> Met behulp van de variabelen $ CHART, $ TABLE en $ STATS wordt de bijbehorende PDF later bijgevoegd. Als er bijvoorbeeld geen tabel moet worden verzonden, hoeft alleen de variabele $ TABLE uit het bericht te worden verwijderd <P class = 'warn'> <b> Waarschuwing </b>: Minstens één van de 3 variabelen moet aanwezig zijn!<p> Voor het verzenden wordt de mailclient van het systeem gebruikt. Zorg ervoor dat *.eml-bestanden hieraan gekoppeld zijn. Verder moet de e-mailclient de vlag \"X-Unsent\" ondersteunen, zodat het gegenereerde EML-bestand kan worden verzonden."
    },
    "01-02-09": {
        "001": "Bijwerken",
        "002": "Alle instellingen die relevant zijn voor de update worden hier gemaakt:",
        "003": "Als het programma wordt gestart, kan automatisch worden gecontroleerd of er een nieuwe versie beschikbaar is.<p> Als deze informatie alleen moet worden weergegeven als het resultaat positief is, schakel dan onderstaande optie uit. Hiermee worden echter ook alle waarschuwings- of foutmeldingen onderdrukt!<P class = 'info'> <b> Opmerking </b>: De test kan ook op elk ogenblik handmatig uitgevoerd worden via de menubalk en toont dan altijd informatie, waarschuwing en foutmeldingen."
    },
    "01-03": {
        "001": "Importeren van Apparaat",
        "002": "Bloeddrukwaarden kunnen rechtstreeks van het meetapparaat worden uitgelezen, mits deze een bijbehorende interface heeft en een deze interface beschikbaar is:",
        "003": "Een extensie kan vrij worden ontworpen door de respectievelijke programmeur en ziet er daardoor van apparaat tot apparaat anders uit. De afbeelding toont de uitbreiding voor de Omron M400IT / M500IT. <p> Na de start wordt de uitgelezen informatie van het meetapparaat weergegeven. De gegevensimport kan worden gestart met de knop \"Importeren\" en onderbroken met \"Annuleren\". De huidige status wordt weergegeven op de voortgangsbalk. <p> Indien nodig kan een logboekbestand worden geschreven voor probleemoplossing. Deze wordt aangemaakt in de TEMP-directory onder de naam \"ubpm-import.log\" en bevat de volledige communicatie tussen het programma en het meetapparaat. <p> Nadat het importeren is voltooid, wordt het dialoogvenster automatisch gesloten en een korte samenvatting van de aantal uitgelezen gegevensrecords, hun distributie naar gebruikers 1 en 2, evenals de genegeerde (bijv. reeds bekende) waarden weergegeven. <p class = 'info'> <b> Opmerking </b>: een USB meetapparaat kan alleen als root worden gebruikt onder Linux, voer een Create udev-regel in:",
        "004": "Maak het bestand <b> \"/etc/udev/rules.d/60-ubpm.rules\" </b> als root (vervang fabrikant-ID 0590 en apparaat-ID 0090 door uw eigen waarden!)",
        "005": "Koppel de bloeddrukmeter los van de computer en sluit hem opnieuw aan"
    },
    "01-04": {
        "001": "Importeren van Inputgegevens",
        "002": "Wilt u één of meerdere meetwaarden handmatig invoeren, dan kunt u dat hier doen:",
        "003": "Bij een groter aantal waarden is het beter om in plaats daarvan te importeren via een bestand </a>. <p> Stel de gewenste tijd in en voer de individuele bloeddrukwaarden in. Geef ook aan of de meting onregelmatigheden vertoonde en voer eventueel een opmerking bij de meting in. <p> Het datapakket kan nu worden aangemaakt met de knop \"Aanmaken\" of weer worden verwijderd met \"Verwijderen\". <p> Met Bij het invoeren van meerdere waarden kan de info-optie worden gedeactiveerd, zodat u het resultaat niet constant hoeft te bevestigen."
    },
    "01-05": {
        "001": "Data Analyse",
        "002": "Een SQL-query kan worden gestart om gegevensrecords gericht te kunnen evalueren:",
        "003": "Selecteer hiervoor een van de voorgedefinieerde SQL-queries of voer uw eigen query in en bevestig dit met de RETURN-toets. <p> Het resultaat van uw query wordt nu uitgevoerd of er wordt een foutmelding weergegeven. Wijzig in het geval van een foutmelding de queryparameters totdat geschikte gegevensrecords zijn gevonden. <p> De volgende query's kunnen worden geëvalueerd: <br>",
        "004": "Parameter",
        "005": "Betekenis",
        "006": "Systolische bloeddruk",
        "007": "Diastolische bloeddruk",
        "008": "Pulsdruk",
        "009": "Hartslag",
        "010": "Onregelmatige hartslag",
        "011": "Onzichtbaar",
        "012": "Kommentaar",
        "013": "Datum",
        "014": "Tijd",
        "015": "Door op de respectievelijke kolomkop te klikken, kan de sorteervolgorde dienovereenkomstig worden aangepast, bijv. oplopend volgens hartslag.",
        "016": "Beweging"
    },
    "01-06": {
        "001": "Online Update",
        "002": "Als er tijdens de updatecontrole een nieuwe versie gevonden wordt, verschijnt het volgende bericht:",
        "003": "Alle belangrijke informatie over nieuwe functies of opgeloste problemen vindt u onder Details. U kunt beslissen of de update moet worden uitgevoerd of genegeerd. <p> Door \"Download\" te selecteren, wordt de nieuwe versie geladen en wordt de huidige voortgang weergegeven. Het proces kan indien nodig op elk moment worden afgebroken. Na voltooiing kan de nieuwe versie na een zoekopdracht automatisch worden gestart vanuit de downloaddirectory. Kopieer de update eventueel later handmatig naar een andere directory. <P class = 'info'> <b> Opmerking </b>: er worden geen gegevens naar de server verzonden, er wordt alleen een klein JSON-bestand geladen dat de versie-informatie bevat!"
    },
    "02": {
        "001": "Gegevensbeheer",
        "002": "Gegevensrecords kunnen <a href='02-01.html'> geïmporteerd </a>, <a href='02-02.html'> geëxporteerd </a>, <a href='02-04.html'>gemigreerd en <a href = '02 -03.html '> afgedrukt </a> worden."
    },
    "02-01": {
        "001": "Data importeren",
        "002": "Gemeten waarden kunnen op verschillende manieren in het programma worden ingevoerd: handmatige <a href='01-04.html'> invoer </a>, vanuit een <a href='02-01-01.html'> CSV </a>, <a href='02-01-02.html'> XML </a>, <a href='02-01-03.html'> JSON </a> of <a href = ' 02 -01- 04.html '> SQL </a> -bestand en rechtstreeks van een ondersteund <a href='01-03.html'> meetinstrument </a>. <p> <h4> Import van invoer </h4> De handmatige invoer is handig als bijvoorbeeld een externe meting door de arts moet worden toegevoegd. <h4> Importeren uit bestand </h4> Het importeren vanuit een bestand is slechts zelden nodig, bijv. wanneer het programma voor de eerste keer gebruikt wordt en gegevens van een andere bron moeten worden ingelezen of inlezen van een back-up na een nieuwe installatie van het programma. <p> Selecteer in de importdialoog het pad dat het bestand bevat dat u wilt ïmporteren. Het documentpad is standaard vooraf ingesteld. <p> Selecteer vervolgens het gewenste bestandstype CSV, XML, JSON of SQL. Alle bestanden die overeenkomen met het bestandstype zouden nu in de geselecteerde map moeten worden weergegeven. Open het bestand dat u wilt importeren. <p> Nadat het importeren is voltooid, wordt het dialoogvenster automatisch gesloten en een korte samenvatting van het aantal gelezen gegevensrecords, hun verdeling tussen gebruikers 1 en 2 en de genegeerde (bijv. reeds bekende) waarden, wordt weergegeven. <H4> Importeren uit meetapparaat </h4> Bij normaal gebruik worden de gegevens rechtstreeks uit het meetapparaat geïmporteerd en aan de bestaande database toegevoegd. Op deze manier kunt u continu registreren over een willekeurige tijdsduur, ook al heeft het meetapparaat zelf maar een beperkte opslagruimte per gebruiker."
    },
    "02-01-01": {
        "001": "Importeren van CSV",
        "002": "Een CSV-bestand moet als volgt opgebouwd zijn:",
        "003": "Als een regel begint met een \"1\", is het voor gebruiker 1, een \"2\" staat voor gebruiker 2 (GEBRUIKER). <p> Datum (DATUM) en tijd (TIJD) volgen in de vorm DD.MM.JJJJ en UU MM.SS. <p> Dit wordt gevolgd door de gemeten waarden voor systolische (SYS) en diastolische (DIA) bloeddruk en hartslag (BPM). <p> Ten slotte de signalering voor onregelmatig (IHB) en verborgen ( INV) en een optionele opmerking (MSG)."
    },
    "02-01-02": {
        "001": "Importeren van XML",
        "002": "Een XML-bestand moet als volgt opgebouwd zijn:",
        "003": "Gegevensrecords voor gebruiker 1 bevinden zich in het gebied \"U1\", voor gebruiker 2 in \"U2\". <p> Elk gegevensrecord bevindt zich in een \"record\" -gebied. Hierin staan de datum (datum) en tijd (tijd) in de vorm DD.MM.JJJJ en UU.MM.SS. <p> Daarna volgen de gemeten waarden voor systolisch (sys) en diastolisch (dia) bloed druk en hartslag (bpm). <p> Ten slotte de signalering voor onregelmatig (ihb) en verborgen (inv) evenals een optioneel commentaar (msg)."
    },
    "02-01-03": {
        "001": "Importeren van JSON",
        "002": "Een JSON bestand moet als volgt opgebouwd zijn:",
        "003": "Gegevensrecords voor gebruiker 1 bevinden zich in het gebied \"U1\", voor gebruiker 2 in \"U2\". <p> Elk gegevensrecord bevindt zich in een \"{}\" gebied. Hierin staan de datum (datum) en tijd (tijd) in de vorm DD.MM.JJJJ en UU.MM.SS. <p> Daarna volgen de gemeten waarden voor systolisch (sys) en diastolisch (dia) bloed druk en hartslag (bpm). <p> Ten slotte de signalering voor onregelmatig (ihb) en verborgen (inv) evenals een optioneel commentaar (msg)."
    },
    "02-01-04": {
        "001": "Importeren van SQL",
        "002": "Een SQL-bestand moet als volgt opgebouwd zijn:",
        "003": "Gegevensrecords voor gebruiker 1 staan in tabel \"U1\", voor gebruiker 2 in \"U2\". <p> Dit bevat datum en tijd in de vorm DD.MM.JJJJ en UU.MM.SS, gemeten waarden voor \"systolische\" en \"diastolische\" bloeddruk en \"hartslag\", de signalering voor \"onregelmatig\" en \"verborgen\" en een optionele opmerking."
    },
    "02-02": {
        "001": "Data exporteren",
        "002": "Gemeten waarden kunnen worden opgeslagen in de formaten <a href='02-02-01.html'> CSV </a>, <a href='02-02-02.html'> XML </a>, <a href = '02-02-03.html'> JSON </a> en <a href='02-02-04.html'> SQL </a> en <a href='02-02-05.html'> PDF</a> voor archivering of doorsturen. Welk formaat de voorkeur verdient, hangt af van het beoogde gebruik. <h4> Exporteren naar bestand </h4> Selecteer in de exportdialoog het pad waar het bestand moet worden opgeslagen. Het documentpad is standaard vooraf ingesteld. Alle bestanden die daar al bestaan in het geselecteerde bestandsformaat worden weergegeven. <p> Voer nu de gewenste bestandsnaam in of accepteer de voorgestelde standaardwaarde. <p> Sla uw gegevensrecords op in het geselecteerde formaat."
    },
    "02-02-01": {
        "001": "Exporteren naar CSV",
        "002": "Een CSV-bestand is bijvoorbeeld geschikt voor volgende toepassingen:",
        "003": "geautomatiseerde verdere verwerking door scripts of programma's",
        "004": "handmatige voorbereiding in een spreadsheet"
    },
    "02-02-02": {
        "001": "Exporteren naar XML",
        "002": "Een XML-bestand is bijvoorbeeld geschikt voor de volgende toepassingen:",
        "003": "geautomatiseerde verdere verwerking door scripts of programma's",
        "004": "Interactieve weergave in een webbrowser"
    },
    "02-02-03": {
        "001": "Exporteren naar JSON",
        "002": "Een JSON-bestand is bijvoorbeeld geschikt voor de volgende toepassingen:",
        "003": "geautomatiseerde verdere verwerking door scripts of programma's",
        "004": "voorkeur voor JavaScript"
    },
    "02-02-04": {
        "001": "Exporteren naar SQL",
        "002": "Een SQL-bestand is bijvoorbeeld geschikt voor de volgende toepassingen:",
        "003": "directe back-up / herstel voor UBPM",
        "004": "externe verwerking in databasetoepassingen"
    },
    "02-03": {
        "001": "Data afdrukken",
        "002": "Als u uw gegevens ter beoordeling aan de behandelende arts wilt voorleggen, kunt u deze uiteraard <a href='02-03-02.html'> afdrukken </a>. <p> Om papier te besparen is het raadzaam om <a href = '02 -03-01.html'> Preview </a> te genereren en te controleren. <p> De preview van de afdruk komt altijd overeen met de momenteel geselecteerde weergave. Schakel daarom via de werkbalk naar de gewenste gebruiker en stel de te bekijken periode in voordat u de gewenste handeling uitvoert."
    },
    "02-03-01": {
        "001": "Voorbeeld",
        "002": "Om uzelf voor het afdrukken ervan te overtuigen, dat de uitvoer echt overeenkomt met de gewenste vorm, kan eerst een voorbeeld van de betreffende weergave worden gegenereerd.",
        "003": "Als de weergave overeenkomt met het gewenste resultaat, kan de uitvoer naar de printer worden gestart door rechtsboven op het printersymbool te drukken."
    },
    "02-03-02": {
        "001": "Afdrukken",
        "002": "Selecteer de gewenste printer in het afdrukdialoogvenster en wijzig de instellingen of de eigenschappen naar wens. <p> Na een korte voorbereidingstijd start de uitvoer op de printer en zijn de afdrukken beschikbaar."
    },
    "03": {
        "001": "Apparaat Extensies",
        "002": "De meetwaarden kunnen via extra uitbreidingen direct uit het meetapparaat worden uitgelezen. Om een extensie voor een bepaald meettoestel te programmeren, moet eerst het overdrachtsprotocol bekend zijn. <p> Om dit vast te stellen, zou je als volgt te werk kunnen gaan:",
        "003": "installeer de software van de fabrikant van het bloeddrukmeetapparaat en de Wireshark-protocolanalyser (https://wireshark.org)",
        "004": "lees de meetwaarden van het meetapparaat in via de software van de fabrikant en monitor het dataverkeer in Wireshark",
        "005": "evalueer het met Wireshark verzamelde dataverkeer tussen de computer en het meetinstrument",
        "006": "herken de verzonden commando's en antwoorden",
        "007": "vind de meetwaarden in de antwoorden",
        "008": "simulatie van communicatie via externe tools zoals hidapitester (https://github.com/todbot/hidapitester) met USB-HID-apparaten",
        "009": "het programmeren van een extensie op basis van de bovenstaande bevindingen",
        "010": "Klinkt makkelijk, maar meestal is het dat niet. ;-) <p> Het kostte me 1-2 dagen om mijn M500IT aan te spreken - dus wees geduldig en geef niet op! <p> <h4> Hier zijn nog een paar tips: </h4> <p> Die Lees de waarden van het meetinstrument en converteer ze van decimaal naar hexadecimaal, aangezien dit het gemakkelijker maakt om ze terug te vinden in de datalog. <p> Mogelijk moet ook een bepaalde waarde worden toegevoegd (bijv. 25 voor systolische bloeddruk) om tot de verwachte waarde te komen. Waarden kunnen ook uit verschillende bytes of bits bestaan! <p> <h4>Hidapitester-opdrachten kunnen in het begin nuttig zijn:</h4>",
        "011": "De waarden moeten natuurlijk worden aangepast aan het bestaande apparaat: in het voorbeeld zou 0590 de fabrikant-ID van OMRON zijn en 0090 de apparaat-ID van de M400IT / M500IT. 9 bytes worden naar het meetapparaat gestuurd en 25 worden als antwoord uitgelezen. <p> <h4>Enkele nuttige bettercap commando's om met Bluetooth te beginnen zijn:</h4>",
        "012": "De waarden moeten natuurlijk aangepast worden aan het bestaande apparaat: in het voorbeeld 00:DE:AD:BE:EF: 00 zou het MAC-adres van het apparaat zijn, DB5B55E0AEE711E1965E0002A5D5C51B de UUID van de dienst en 0800000000100018 de te schrijven waarde . <p> Ik help graag met vragen, maar ik kan geen extensies programmeren voor meetapparatuur die ik niet bezit! <p> Als de communicatie via hidapitester of bettercap werkt en de gegevens in de antwoorden zijn gevonden, kan ik het blindelings proberen en testen.<p class = 'info'> <b> Opmerking </b>: Een USB-apparaat kan ook via het internet worden gedeeld met usbip, zodat ik er toegang toe heb."
    },
    "02-02-05": {
        "001": "Exporteren naar PDF",
        "002": "Een pdf-bestand is bijvoorbeeld geschikt voor de volgende use cases:",
        "003": "Archivering van specifieke weergaven"
    },
    "02-04": {
        "001": "Data migreren",
        "002": "Reeds bestaande metingen kunnen worden gemigreerd vanuit de software van de fabrikant:",
        "003": "Exporteer eerst je gegevens uit het programma dat je tot nu toe hebt gebruikt, als CSV-bestand. Als alleen het XLS-formaat wordt aangeboden, gebruik dit dan en converteer het vervolgens naar het CSV-formaat met een spreadsheet programma zoals o.a. Excel.<p> Laad nu dit bestand in en selecteer, indien beschikbaar, het juiste programma uit de lijst. De volgende programma's worden momenteel ondersteund:",
        "004": "Als uw programma nog niet ondersteund wordt, moet u zelf de parameters en posities instellen. Bekijk hiervoor het CSV-bestand en probeer met behulp van de voorbeeldprogramma's de juiste parameters en posities te vinden. Gebruik hiervoor de \"Aangepaste\" selectie, omdat deze wordt opgeslagen en hersteld. Als alternatief kunt u mij de CSV / XLS sturen zodat ik het programma direct kan ondersteunen. <p> Zodra de testmigratie geen fouten meer oplevert en de juiste waarden als resultaat worden weergegeven, kan de migratie worden gestart <p> <p class = 'info'> <b> Opmerking </b>: Als de bestandsnaam de naam van de fabrikant bevat, wordt automatisch het bijbehorende programma geselecteerd. Verder wordt gebruiker '2' automatisch geselecteerd als deze een '2' bevat</h4>.",
        "005": "Parameter",
        "006": "Betekenis",
        "007": "Kommentaar",
        "008": "Dag, 1...31",
        "009": "Dag, 01...31",
        "010": "Dag kort, vb. ma",
        "011": "Dag lang, bv. maandag",
        "012": "Maand, 1...12",
        "013": "Maand, 01...12",
        "014": "Maand kort, bv. jan",
        "015": "maand lang, bv. januari",
        "016": "Jaar 00..99",
        "017": "jaar xxxx",
        "018": "Uur, 0...23 / 1...12",
        "019": "Uur, 00...23 / 01...12",
        "020": "Uur, 0...23",
        "021": "Uur, 00...23",
        "022": "Minuut, 0..59",
        "023": "Minuut, 00...59",
        "024": "Sekonde, 0...59",
        "025": "Sekonde, 00...59",
        "028": "AM/PM klein",
        "031": "Activeert het taalveld, ISO 639-1 invoer zoals \"nl\" kan vereist zijn",
        "026": "Millisekonde, 0...999",
        "027": "Millisekonde, 000...999",
        "029": "AM/PM groot",
        "030": "Tijdzone, bv. CEST"
    },
    "01-02-08": {
        "003": "Deze zijn ook direct configureerbaar in de plug-in en kunnen hier worden ingesteld voor het geval de plug-in door een fout niet meer start.<p> Alle opties zouden voor zichzelf moeten spreken en geen verdere beschrijving nodig hebben.",
        "002": "Alle plugin betreffende settings worden hier gemaakt:",
        "001": "Plugin"
    },
    "01-07": {
        "001": "Gift",
        "002": "Als je aan het project wil meewerken, kan je dat hier doen:",
        "003": "De ontwikkeling en het onderhoud van dit programma kost veel tijd en werk. U kunt daarom als blijk van waardering een bedrag doneren.<p>Dit kan op verschillende manieren. Kies de voor u gemakkelijkste manier en volg de instructies.<p>U kunt direct op de pc een donatie doen (klik op de -knop). Dit kan ook via uw mobiele apparaat (scannen van de QR-code).<p>Bedankt!<p class='info'><b>Opmerking</b>: Alle functies zijn beschikbaar zonder beperkingen, er worden geen advertenties geplaatst en er worden geen gegevens verzameld, ook niet als je geen donatie doet."
    },
    "01-08": {
        "001": "Dataverdeling",
        "003": "De weergave verwijst altijd naar de momenteel ingestelde gebruiker en periode.<p>Als de meeste datasets zich in de groene zone bevinden, zijn bloeddruk en hartslag optimaal aangepast.<p class='info'><b>Opmerking</b>: De hartslagbereiken zijn geslachts- en leeftijdsafhankelijk en moeten daarom correct worden ingesteld in de instellingen.",
        "002": "Hier kan de verdeling van de datasets over de vooraf gedefinieerde gebieden worden weergegeven:"
    }
}
